…
2 Scorecard data

The Department of Education collects annual statistics on colleges and universities in the United States. I have included a subset of this data from 2018-19 in the rcis library from GitHub. Here let’s examine the data to answer the following question: how does cost of attendance vary across universities?

2.1 Import the data

The scorecard dataset is included as part of the rcis library:

library(rcis)
data("scorecard")

scorecard

## # A tibble: 1,721 × 14
##    unitid name        state type  admrate satavg  cost netcost avgfacsal pctpell
##     <dbl> <chr>       <chr> <fct>   <dbl>  <dbl> <dbl>   <dbl>     <dbl>   <dbl>
##  1 100654 Alabama A … AL    Publ…   0.896    959 23445   15529     68391   0.710
##  2 100663 University… AL    Publ…   0.806   1245 25542   16530    102420   0.340
##  3 100706 University… AL    Publ…   0.771   1300 24861   17208     87273   0.240
##  4 100724 Alabama St… AL    Publ…   0.989    938 21892   19534     64746   0.737
##  5 100751 The Univer… AL    Publ…   0.804   1262 30016   20917     93141   0.172
##  6 100830 Auburn Uni… AL    Publ…   0.956   1061 20225   13678     69561   0.465
##  7 100858 Auburn Uni… AL    Publ…   0.851   1302 32196   24018     96498   0.134
##  8 100937 Birmingham… AL    Priv…   0.604   1202 32514   19808     62649   0.226
##  9 101189 Faulkner U… AL    Priv…   0.758   1068 34835   20500     53334   0.501
## 10 101365 Herzing Un… AL    Priv…   0.915     NA 30319   25741     56736   0.697
## # ℹ 1,711 more rows
## # ℹ 4 more variables: comprate <dbl>, firstgen <dbl>, debt <dbl>, locale <fct>
…
