Tables and Websites
…
---

## Bachelor's degrees

``` r
# https://nces.ed.gov/programs/digest/d23/tables/dt23_322.10.asp
#ba_degrees %>% pivot_longer(names_to = "year", values_to = "count", cols = -'field') %>% separate_wider_delim(year, delim = '-',  too_few = "align_start", names =c("year", "dump"), cols_remove = TRUE) %>% select(-dump) %>% group_by(year) %>% mutate(total_yr = sum(count, na.rm = T)) %>% ungroup() %>% mutate(pct = count / total_yr) %>% write_csv("BA_degrees.csv")
BA_degrees <- read_csv(here::here("21-websites", "data/BA_degrees.csv"))
BA_degrees
```

```
## # A tibble: 594 × 5
##    field                              year count total_yr    pct
##    <chr>                             <dbl> <dbl>    <dbl>  <dbl>
##  1 Agriculture and natural resources  1970 12674   839730 0.0151
##  2 Agriculture and natural resources  1975 19402   925746 0.0210
##  3 Agriculture and natural resources  1980 21886   935140 0.0234
##  4 Agriculture and natural resources  1985 17191   987823 0.0174
##  5 Agriculture and natural resources  1990 13363  1094538 0.0122
##  6 Agriculture and natural resources  1995 21757  1164792 0.0187
##  7 Agriculture and natural resources  2000 23766  1244171 0.0191
##  8 Agriculture and natural resources  2005 23497  1485104 0.0158
##  9 Agriculture and natural resources  2012 34304  1840381 0.0186
## 10 Agriculture and natural resources  2013 35953  1870150 0.0192
## # ℹ 584 more rows
```
…
count: false
 
## Generating a **gt** table
.panel1-degrees-2021-table-auto[

``` r
*BA_degrees
```
]
 
.panel2-degrees-2021-table-auto[

```
## # A tibble: 594 × 5
##    field                              year count total_yr    pct
##    <chr>                             <dbl> <dbl>    <dbl>  <dbl>
##  1 Agriculture and natural resources  1970 12674   839730 0.0151
##  2 Agriculture and natural resources  1975 19402   925746 0.0210
##  3 Agriculture and natural resources  1980 21886   935140 0.0234
##  4 Agriculture and natural resources  1985 17191   987823 0.0174
##  5 Agriculture and natural resources  1990 13363  1094538 0.0122
##  6 Agriculture and natural resources  1995 21757  1164792 0.0187
##  7 Agriculture and natural resources  2000 23766  1244171 0.0191
##  8 Agriculture and natural resources  2005 23497  1485104 0.0158
##  9 Agriculture and natural resources  2012 34304  1840381 0.0186
## 10 Agriculture and natural resources  2013 35953  1870150 0.0192
## # ℹ 584 more rows
```
…
## Generating a **gt** table
.panel1-degrees-2021-table-auto[

``` r
BA_degrees %>%
* filter(year == 2021)
```
]
 
.panel2-degrees-2021-table-auto[

```
## # A tibble: 33 × 5
##    field                                            year  count total_yr     pct
##    <chr>                                           <dbl>  <dbl>    <dbl>   <dbl>
##  1 "Agriculture and natural resources"              2021  40675  2015035 0.0202 
##  2 "Architecture and related services"              2021   9462  2015035 0.00470
##  3 "Area, ethnic, cultural, gender, and group stu…  2021   6658  2015035 0.00330
##  4 "Biological and biomedical sciences"             2021 131462  2015035 0.0652 
##  5 "Business"                                       2021 375418  2015035 0.186  
##  6 "Communication, journalism, and related progra…  2021  86043  2015035 0.0427 
##  7 "Communications technologies"                    2021   4851  2015035 0.00241
##  8 "Computer and information sciences and support…  2021 108503  2015035 0.0538 
##  9 "Education"                                      2021  89410  2015035 0.0444 
## 10 "Engineering"                                    2021 123017  2015035 0.0610 
## # ℹ 23 more rows
```
…
## Generating a **gt** table
.panel1-degrees-2021-table-auto[

``` r
BA_degrees %>%
  filter(year == 2021) %>%
* select(field, pct)
```
]
 
.panel2-degrees-2021-table-auto[

```
## # A tibble: 33 × 2
##    field                                                               pct
##    <chr>                                                             <dbl>
##  1 "Agriculture and natural resources"                             0.0202 
##  2 "Architecture and related services"                             0.00470
##  3 "Area, ethnic, cultural, gender, and group studies"             0.00330
##  4 "Biological and biomedical sciences"                            0.0652 
##  5 "Business"                                                      0.186  
##  6 "Communication, journalism, and related programs"               0.0427 
##  7 "Communications technologies"                                   0.00241
##  8 "Computer and information sciences and support \r\n   services" 0.0538 
##  9 "Education"                                                     0.0444 
## 10 "Engineering"                                                   0.0610 
## # ℹ 23 more rows
```
…
## Generating a **gt** table
.panel1-degrees-2021-table-auto[

``` r
BA_degrees %>%
  filter(year == 2021) %>%
  select(field, pct) %>%
* arrange(desc(pct))
```
]
 
.panel2-degrees-2021-table-auto[

```
## # A tibble: 33 × 2
##    field                                                              pct
##    <chr>                                                            <dbl>
##  1 "Business"                                                      0.186 
##  2 "Health professions and related programs"                       0.131 
##  3 "Social sciences and history"                                   0.0750
##  4 "Biological and biomedical sciences"                            0.0652
##  5 "Psychology"                                                    0.0643
##  6 "Engineering"                                                   0.0610
##  7 "Computer and information sciences and support \r\n   services" 0.0538
##  8 "Visual and performing arts"                                    0.0448
##  9 "Education"                                                     0.0444
## 10 "Communication, journalism, and related programs"               0.0427
## # ℹ 23 more rows
```
…
