…
## Exercise: write a `for` loop

### Mean of columns in `car_prices`

Write a `for` loop that calculates the arithmetic mean for every column in `modeldata::car_prices`.


```r
data("car_prices", package = "modeldata")
car_prices
```

```
## # A tibble: 804 × 18
##     Price Mileage Cylinder Doors Cruise Sound Leather Buick Cadillac Chevy
##     <dbl>   <int>    <int> <int>  <int> <int>   <int> <int>    <int> <int>
##  1 22661.   20105        6     4      1     0       0     1        0     0
##  2 21725.   13457        6     2      1     1       0     0        0     1
##  3 29143.   31655        4     2      1     1       1     0        0     0
##  4 30732.   22479        4     2      1     0       0     0        0     0
##  5 33359.   17590        4     2      1     1       1     0        0     0
##  6 30315.   23635        4     2      1     0       0     0        0     0
##  7 33382.   17381        4     2      1     1       1     0        0     0
##  8 30251.   27558        4     2      1     0       1     0        0     0
##  9 30167.   25049        4     2      1     0       0     0        0     0
## 10 27060.   17319        4     4      1     0       1     0        0     0
## # ℹ 794 more rows
## # ℹ 8 more variables: Pontiac <int>, Saab <int>, Saturn <int>,
## #   convertible <int>, coupe <int>, hatchback <int>, sedan <int>, wagon <int>
```
…
## Exercise: rewrite our `for` loops using a `map()` function

### Mean of columns in `car_prices`

Write a `map()` function that calculates the arithmetic mean for every column in `car_prices`.


```r
car_prices
```

```
## # A tibble: 804 × 18
##     Price Mileage Cylinder Doors Cruise Sound Leather Buick Cadillac Chevy
##     <dbl>   <int>    <int> <int>  <int> <int>   <int> <int>    <int> <int>
##  1 22661.   20105        6     4      1     0       0     1        0     0
##  2 21725.   13457        6     2      1     1       0     0        0     1
##  3 29143.   31655        4     2      1     1       1     0        0     0
##  4 30732.   22479        4     2      1     0       0     0        0     0
##  5 33359.   17590        4     2      1     1       1     0        0     0
##  6 30315.   23635        4     2      1     0       0     0        0     0
##  7 33382.   17381        4     2      1     1       1     0        0     0
##  8 30251.   27558        4     2      1     0       1     0        0     0
##  9 30167.   25049        4     2      1     0       0     0        0     0
## 10 27060.   17319        4     4      1     0       1     0        0     0
## # ℹ 794 more rows
## # ℹ 8 more variables: Pontiac <int>, Saab <int>, Saturn <int>,
## #   convertible <int>, coupe <int>, hatchback <int>, sedan <int>, wagon <int>
```
…
## Mutate

Combinations of `mutate()` and `across()` work in a similar way to their summarize equivalents.


```r
car_prices %>%
  mutate(across(.cols = Price:Doors, .fns = log10))
```

```
## # A tibble: 804 × 18
##    Price Mileage Cylinder Doors Cruise Sound Leather Buick Cadillac Chevy
##    <dbl>   <dbl>    <dbl> <dbl>  <int> <int>   <int> <int>    <int> <int>
##  1  4.36    4.30    0.778 0.602      1     0       0     1        0     0
##  2  4.34    4.13    0.778 0.301      1     1       0     0        0     1
##  3  4.46    4.50    0.602 0.301      1     1       1     0        0     0
##  4  4.49    4.35    0.602 0.301      1     0       0     0        0     0
##  5  4.52    4.25    0.602 0.301      1     1       1     0        0     0
##  6  4.48    4.37    0.602 0.301      1     0       0     0        0     0
##  7  4.52    4.24    0.602 0.301      1     1       1     0        0     0
##  8  4.48    4.44    0.602 0.301      1     0       1     0        0     0
##  9  4.48    4.40    0.602 0.301      1     0       0     0        0     0
## 10  4.43    4.24    0.602 0.602      1     0       1     0        0     0
## # ℹ 794 more rows
## # ℹ 8 more variables: Pontiac <int>, Saab <int>, Saturn <int>,
## #   convertible <int>, coupe <int>, hatchback <int>, sedan <int>, wagon <int>
```

## Filter

We cannot directly use `across()` in `filter()` because we need an extra step to combine the results. To that end, `filter()` has two special purpose companion functions:

- `if_any()` keeps the rows where the predicate is true for **at least one** selected column:

    
    ```r
    worldbank %>%
      filter(if_any(everything(), ~ !is.na(.x)))
    ```
    
    ```
    ## # A tibble: 78 × 14
    ##    iso3c date  iso2c country   perc_energy_fosfuel rnd_gdpshare
    ##    <chr> <chr> <chr> <chr>                   <dbl>        <dbl>
    ##  1 ARG   2005  AR    Argentina                89.1        0.379
    ##  2 ARG   2006  AR    Argentina                88.7        0.400
    ##  3 ARG   2007  AR    Argentina                89.2        0.402
    ##  4 ARG   2008  AR    Argentina                90.7        0.421
    ##  5 ARG   2009  AR    Argentina                89.6        0.519
    ##  6 ARG   2010  AR    Argentina                89.5        0.518
    ##  7 ARG   2011  AR    Argentina                88.9        0.537
    ##  8 ARG   2012  AR    Argentina                89.0        0.609
    ##  9 ARG   2013  AR    Argentina                89.0        0.612
    ## 10 ARG   2014  AR    Argentina                87.7        0.613
    ## # ℹ 68 more rows
    ## # ℹ 8 more variables: percgni_adj_gross_savings <dbl>,
    ## #   real_netinc_percap <dbl>, gdp_capita <dbl>, top10perc_incshare <dbl>,
    ## #   employment_ratio <dbl>, life_exp <dbl>, pop_growth <dbl>, pop <dbl>
    ```

- `if_all()` keeps the rows where the predicate is true for **all** selected columns:

    
    ```r
    worldbank %>%
      filter(if_all(everything(), ~ !is.na(.x)))
    ```
    
    ```
    ## # A tibble: 42 × 14
    ##    iso3c date  iso2c country   perc_energy_fosfuel rnd_gdpshare
    ##    <chr> <chr> <chr> <chr>                   <dbl>        <dbl>
    ##  1 ARG   2005  AR    Argentina                89.1        0.379
    ##  2 ARG   2006  AR    Argentina                88.7        0.400
    ##  3 ARG   2007  AR    Argentina                89.2        0.402
    ##  4 ARG   2008  AR    Argentina                90.7        0.421
    ##  5 ARG   2009  AR    Argentina                89.6        0.519
    ##  6 ARG   2010  AR    Argentina                89.5        0.518
    ##  7 ARG   2011  AR    Argentina                88.9        0.537
    ##  8 ARG   2012  AR    Argentina                89.0        0.609
    ##  9 ARG   2013  AR    Argentina                89.0        0.612
    ## 10 ARG   2014  AR    Argentina                87.7        0.613
    ## # ℹ 32 more rows
    ## # ℹ 8 more variables: percgni_adj_gross_savings <dbl>,
    ## #   real_netinc_percap <dbl>, gdp_capita <dbl>, top10perc_incshare <dbl>,
    ## #   employment_ratio <dbl>, life_exp <dbl>, pop_growth <dbl>, pop <dbl>
    ```
…
{{< spoiler text="Click for the solution" >}}


```r
worldbank %>%
  mutate(across(.cols = where(is.numeric), .fns = rescale01))
```

```
## # A tibble: 78 × 14
##    iso3c date  iso2c country   perc_energy_fosfuel rnd_gdpshare
##    <chr> <chr> <chr> <chr>                   <dbl>        <dbl>
##  1 ARG   2005  AR    Argentina               0.955        0.108
##  2 ARG   2006  AR    Argentina               0.944        0.116
##  3 ARG   2007  AR    Argentina               0.960        0.116
##  4 ARG   2008  AR    Argentina               1            0.124
##  5 ARG   2009  AR    Argentina               0.971        0.159
##  6 ARG   2010  AR    Argentina               0.968        0.159
##  7 ARG   2011  AR    Argentina               0.950        0.166
##  8 ARG   2012  AR    Argentina               0.954        0.192
##  9 ARG   2013  AR    Argentina               0.953        0.193
## 10 ARG   2014  AR    Argentina               0.918        0.194
## # ℹ 68 more rows
## # ℹ 8 more variables: percgni_adj_gross_savings <dbl>,
## #   real_netinc_percap <dbl>, gdp_capita <dbl>, top10perc_incshare <dbl>,
## #   employment_ratio <dbl>, life_exp <dbl>, pop_growth <dbl>, pop <dbl>
```
…
