…
Important info:

Name - pretty obvious

50:350 - column names define different lengths of time

Cell values are scores associated with each name and length of time

{{< spoiler text=“Click for a hint” >}}

Tidy data structure

## # A tibble: 28 × 3
##    Name   Time Score
##    <chr> <dbl> <dbl>
##  1 Carla    50   1.2
##  2 Carla   100   1.8
##  3 Carla   150   2.2
##  4 Carla   200   2.3
##  5 Carla   250   3  
##  6 Carla   300   2.5
##  7 Carla   350   1.8
##  8 Mace     50   1.5
##  9 Mace    100   1.1
## 10 Mace    150   1.9
## # ℹ 18 more rows

{{< /spoiler >}}

{{< spoiler text=“Click for the solution” >}}

pivot_longer(
  data = race,
  cols = -Name,
  names_to = "Time",
  values_to = "Score",
  # ensure the Time column is stored as a numeric column
  names_transform = parse_number
)

## # A tibble: 28 × 3
##    Name   Time Score
##    <chr> <dbl> <dbl>
##  1 Carla    50   1.2
##  2 Carla   100   1.8
##  3 Carla   150   2.2
##  4 Carla   200   2.3
##  5 Carla   250   3  
##  6 Carla   300   2.5
##  7 Carla   350   1.8
##  8 Mace     50   1.5
##  9 Mace    100   1.1
## 10 Mace    150   1.9
## # ℹ 18 more rows
…
In this example, the basic unit of observation is the test. Each individual takes two separate tests (Math or Writing) at multiple points in time: during each quarter (Fall, Winter, Spring) as well as in multiple years (2008 and 2009). So our final data frame should contain five columns: ID (identifying the student), Year (year the test was taken), Quarter (quarter in which the test was taken), Math (score on the math test), and Writing (score on the writing test).

Where can we begin? Initially we can make the data frame longer by making Fall, Winter, and Spring into a single column (we can use the inclusive select function : to gather these three columns):

pivot_longer(
  data = grades,
  cols = c(Fall:Winter),
  names_to = "Quarter",
  values_to = "Score"
)

## # A tibble: 36 × 5
##       ID Test     Year Quarter Score
##    <dbl> <chr>   <dbl> <chr>   <dbl>
##  1     1 Math     2008 Fall       15
##  2     1 Math     2008 Spring     16
##  3     1 Math     2008 Winter     19
##  4     1 Math     2009 Fall       12
##  5     1 Math     2009 Spring     13
##  6     1 Math     2009 Winter     27
##  7     1 Writing  2008 Fall       22
##  8     1 Writing  2008 Spring     22
##  9     1 Writing  2008 Winter     24
## 10     1 Writing  2009 Fall       10
## # ℹ 26 more rows
…
{{< /spoiler >}}

{{< spoiler text=“Click for the solution” >}}

This is a more complex operation. The basic problem is that we have variables stored in multiple columns (location, with possible values of work, play, and talk). We need to combine these columns into a single column for each variable. But what happens if we just make the data frame longer in this way?

pivot_longer(
  data = activities,
  cols = c(work.T1:talk.T2),
  names_to = "variable",
  values_to = "value"
)

## # A tibble: 60 × 4
##    id    trt   variable  value
##    <chr> <chr> <chr>     <dbl>
##  1 x1    cnt   work.T1  0.652 
##  2 x1    cnt   play.T1  0.865 
##  3 x1    cnt   talk.T1  0.536 
##  4 x1    cnt   work.T2  0.275 
##  5 x1    cnt   play.T2  0.354 
##  6 x1    cnt   talk.T2  0.0319
##  7 x2    cnt   work.T1  0.568 
##  8 x2    cnt   play.T1  0.615 
##  9 x2    cnt   talk.T1  0.0931
## 10 x2    cnt   work.T2  0.229 
## # ℹ 50 more rows
…
We have a single observation stored across multiple rows: we want a single row for each id x trt pairing

We have two variables stored in a single column: variable contains the information on both location (work, play, and talk) as well as when the measurement was taken (T1 or T2)

The best approach is to fix the second problem by separating the columns, then spreading the different types of measurements back into their own columns.

pivot_longer(
  data = activities,
  cols = c(work.T1:talk.T2),
  names_to = "variable",
  values_to = "value"
) %>%
  separate(variable, into = c("location", "time"))

## # A tibble: 60 × 5
##    id    trt   location time   value
##    <chr> <chr> <chr>    <chr>  <dbl>
##  1 x1    cnt   work     T1    0.652 
##  2 x1    cnt   play     T1    0.865 
##  3 x1    cnt   talk     T1    0.536 
##  4 x1    cnt   work     T2    0.275 
##  5 x1    cnt   play     T2    0.354 
##  6 x1    cnt   talk     T2    0.0319
##  7 x2    cnt   work     T1    0.568 
##  8 x2    cnt   play     T1    0.615 
##  9 x2    cnt   talk     T1    0.0931
## 10 x2    cnt   work     T2    0.229 
## # ℹ 50 more rows
…
