Looking at data
…
.small[

``` r
library(tidyverse)

staff_long <- staff %>%
  pivot_longer(cols = -faculty_type, names_to = "year", 
               values_to = "percentage") %>%
  mutate(percentage = as.numeric(percentage))

staff_long
```

```
## # A tibble: 55 × 3
##    faculty_type              year  percentage
##    <chr>                     <chr>      <dbl>
##  1 Full-Time Tenured Faculty 1975        29  
##  2 Full-Time Tenured Faculty 1989        27.6
##  3 Full-Time Tenured Faculty 1993        25  
##  4 Full-Time Tenured Faculty 1995        24.8
##  5 Full-Time Tenured Faculty 1999        21.8
##  6 Full-Time Tenured Faculty 2001        20.3
##  7 Full-Time Tenured Faculty 2003        19.3
##  8 Full-Time Tenured Faculty 2005        17.8
##  9 Full-Time Tenured Faculty 2007        17.2
## 10 Full-Time Tenured Faculty 2009        16.8
## # ℹ 45 more rows
```
…
---

## New variable: `pctpell_cat`

``` r
scorecard <- scorecard %>%
  mutate(pctpell_cat = cut_interval(x = pctpell, n = 6)) %>%
  drop_na(pctpell_cat)

scorecard %>%
  select(pctpell, pctpell_cat)
```

```
## # A tibble: 1,715 × 2
##    pctpell pctpell_cat  
##      <dbl> <fct>        
##  1   0.685 (0.652,0.816]
##  2   0.325 (0.163,0.326]
##  3   0.238 (0.163,0.326]
##  4   0.720 (0.652,0.816]
##  5   0.171 (0.163,0.326]
##  6   0.482 (0.326,0.489]
##  7   0.130 [0,0.163]    
##  8   0.215 (0.163,0.326]
##  9   0.461 (0.326,0.489]
## 10   0.675 (0.652,0.816]
## # ℹ 1,705 more rows
```
…
