Animation
…
.panel1-mc-sim-data-auto[

``` r
set.seed(13)

*rerun(.n = 10, tibble(x = rnorm(1000)))
```
]
 
.panel2-mc-sim-data-auto[

```
## [[1]]
## # A tibble: 1,000 × 1
##         x
##     <dbl>
##  1  0.554
##  2 -0.280
##  3  1.78 
##  4  0.187
##  5  1.14 
##  6  0.416
##  7  1.23 
##  8  0.237
##  9 -0.365
## 10  1.11 
## # ℹ 990 more rows
## 
## [[2]]
## # A tibble: 1,000 × 1
##          x
##      <dbl>
##  1 -0.587 
##  2  1.12  
##  3  1.25  
##  4 -0.0505
##  5  0.377 
##  6 -1.22  
##  7 -0.207 
##  8 -0.529 
##  9  0.296 
## 10  1.56  
## # ℹ 990 more rows
## 
## [[3]]
## # A tibble: 1,000 × 1
##         x
##     <dbl>
##  1  0.392
##  2  0.947
##  3 -1.03 
##  4  1.05 
##  5 -0.182
##  6  1.20 
##  7 -0.145
##  8  0.152
##  9  0.989
## 10 -1.50 
## # ℹ 990 more rows
## 
## [[4]]
## # A tibble: 1,000 × 1
##         x
##     <dbl>
##  1  0.922
##  2 -0.395
##  3  0.211
##  4  0.202
##  5  0.275
##  6  0.266
##  7 -1.41 
##  8 -0.120
##  9  0.284
## 10 -1.46 
## # ℹ 990 more rows
## 
## [[5]]
## # A tibble: 1,000 × 1
##           x
##       <dbl>
##  1  0.250  
##  2 -0.0145 
##  3 -0.00727
##  4 -0.277  
##  5 -0.140  
##  6  0.685  
##  7  0.669  
##  8 -1.64   
##  9  1.25   
## 10 -1.02   
## # ℹ 990 more rows
## 
## [[6]]
## # A tibble: 1,000 × 1
##         x
##     <dbl>
##  1  0.817
##  2  0.271
##  3  1.12 
##  4  0.652
##  5 -0.469
##  6 -0.320
##  7 -0.530
##  8  0.716
##  9  1.28 
## 10  0.383
## # ℹ 990 more rows
## 
## [[7]]
## # A tibble: 1,000 × 1
##          x
##      <dbl>
##  1 -0.663 
##  2 -1.35  
##  3 -0.757 
##  4 -0.982 
##  5  0.202 
##  6 -0.117 
##  7  0.395 
##  8  1.96  
##  9  0.0590
## 10 -0.0669
## # ℹ 990 more rows
## 
## [[8]]
## # A tibble: 1,000 × 1
##           x
##       <dbl>
##  1 -0.592  
##  2 -0.909  
##  3 -0.107  
##  4 -0.00506
##  5 -0.00556
##  6  1.02   
##  7 -0.151  
##  8  0.545  
##  9 -0.729  
## 10  0.0864 
## # ℹ 990 more rows
## 
## [[9]]
## # A tibble: 1,000 × 1
##         x
##     <dbl>
##  1 -0.224
##  2  1.29 
##  3 -0.282
##  4 -1.18 
##  5 -1.46 
##  6 -0.478
##  7  1.73 
##  8 -0.841
##  9  1.71 
## 10  1.34 
## # ℹ 990 more rows
## 
## [[10]]
## # A tibble: 1,000 × 1
##          x
##      <dbl>
##  1  1.10  
##  2 -0.0235
##  3  0.197 
##  4 -0.0505
##  5  0.228 
##  6 -1.14  
##  7 -1.36  
##  8  0.645 
##  9 -0.781 
## 10 -0.497 
## # ℹ 990 more rows
```
…
.panel1-mc-sim-data-auto[

``` r
set.seed(13)

rerun(.n = 10, tibble(x = rnorm(1000))) %>%
* bind_rows(.id = "id")
```
]
 
.panel2-mc-sim-data-auto[

```
## # A tibble: 10,000 × 2
##    id         x
##    <chr>  <dbl>
##  1 1      0.554
##  2 1     -0.280
##  3 1      1.78 
##  4 1      0.187
##  5 1      1.14 
##  6 1      0.416
##  7 1      1.23 
##  8 1      0.237
##  9 1     -0.365
## 10 1      1.11 
## # ℹ 9,990 more rows
```
…
.panel1-mc-sim-data-auto[

``` r
set.seed(13)

rerun(.n = 10, tibble(x = rnorm(1000))) %>%
  bind_rows(.id = "id") %>%
* group_by(id)
```
]
 
.panel2-mc-sim-data-auto[

```
## # A tibble: 10,000 × 2
## # Groups:   id [10]
##    id         x
##    <chr>  <dbl>
##  1 1      0.554
##  2 1     -0.280
##  3 1      1.78 
##  4 1      0.187
##  5 1      1.14 
##  6 1      0.416
##  7 1      1.23 
##  8 1      0.237
##  9 1     -0.365
## 10 1      1.11 
## # ℹ 9,990 more rows
```
…
``` r
set.seed(13)

rerun(.n = 10, tibble(x = rnorm(1000))) %>%
  bind_rows(.id = "id") %>%
  group_by(id) %>%
* mutate(x_bar = cummean(x),
*        n_id = row_number())
```
]
 
.panel2-mc-sim-data-auto[

```
## # A tibble: 10,000 × 4
## # Groups:   id [10]
##    id         x x_bar  n_id
##    <chr>  <dbl> <dbl> <int>
##  1 1      0.554 0.554     1
##  2 1     -0.280 0.137     2
##  3 1      1.78  0.683     3
##  4 1      0.187 0.559     4
##  5 1      1.14  0.676     5
##  6 1      0.416 0.632     6
##  7 1      1.23  0.718     7
##  8 1      0.237 0.658     8
##  9 1     -0.365 0.544     9
## 10 1      1.11  0.600    10
## # ℹ 9,990 more rows
```
…
---

count: false

.panel1-mc-plot-auto[

``` r
*mc_sim
```
]
 
.panel2-mc-plot-auto[

```
## # A tibble: 10,000 × 4
## # Groups:   id [10]
##    id         x x_bar  n_id
##    <chr>  <dbl> <dbl> <int>
##  1 1      0.554 0.554     1
##  2 1     -0.280 0.137     2
##  3 1      1.78  0.683     3
##  4 1      0.187 0.559     4
##  5 1      1.14  0.676     5
##  6 1      0.416 0.632     6
##  7 1      1.23  0.718     7
##  8 1      0.237 0.658     8
##  9 1     -0.365 0.544     9
## 10 1      1.11  0.600    10
## # ℹ 9,990 more rows
```
…
